{
  "developers": [
    {
      "fullName": "Racem Smaoui",
      "job": "CEO Kaizen SN et Ingénieur études et développement",
      "linkedinUrl": "https://www.linkedin.com/in/racem-smaoui-87161465/",
      "imgSrc": "../../../assets/images/team-members/racem.jpg"
    },
    {
      "fullName": "Nour Sboui",
      "job": "Ingénieur logiciel",
      "linkedinUrl": null,
      "imgSrc": "../../../assets/images/team-members/nour.jpg"
    },
    {
      "fullName": "Mohamed Kallel",
      "job": "CTO IOVision et architecte d'application",
      "linkedinUrl": null,
      "imgSrc": "../../../assets/images/team-members/kallel.jpeg"
    },
    {
      "fullName": "Aymen Ben Amor",
      "job": "Développeur fullstack java/angular",
      "linkedinUrl": null,
      "imgSrc": "../../../assets/images/team-members/aymen.jpeg"
    },
    {
      "fullName": "Nassim Maalej",
      "job": "Chef de projet informatique",
      "linkedinUrl": "https://www.linkedin.com/in/maalejnassim/",
      "imgSrc": "../../../assets/images/team-members/nassim.jpeg"
    },
    {
      "fullName": "Abir Smaoui",
      "job": "Développeur .Net",
      "linkedinUrl": null,
      "imgSrc": "../../../assets/images/team-members/abir.jpeg"
    },
    {
      "fullName": "Achref Chabbouh",
      "job": "Ingénieur logiciel",
      "linkedinUrl": "https://www.linkedin.com/in/achraf-chabbouh-559a378b/",
      "imgSrc": "../../../assets/images/team-members/achraf_chabbouh.png"
    },
    {
      "fullName": "Yahia Ammar",
      "job": "Développeur full-stack",
      "linkedinUrl": null,
      "imgSrc": "../../../assets/images/team-members/yahia.jpeg"
    }

  ],
  "pharmacists": [
    {
      "fullName": "Amina Ben Mechlia",
      "job": "Pharmacienne chargée d'affaires réglementaires",
      "linkedinUrl": null,
      "imgSrc": "../../../assets/images/team-members/amina.jpg"
    },
    {
      "fullName": "Mahmoud Abd Elfateh Zarati",
      "job": "Docteur en Pharmacie et Master en Business Management",
      "linkedinUrl": null,
      "imgSrc": "../../../assets/images/team-members/mahmoud.jpg"
    }
  ],
  "doctors": [
    {
      "fullName": "Wiem ghrab",
      "job": "Gynécologue obstétricien",
      "linkedinUrl": null,
      "imgSrc": "../../../assets/images/team-members/wiem.jpeg"
    },
    {
      "fullName": "Sana Chakroun",
      "job": "Gastro-entérologue",
      "linkedinUrl": null,
      "imgSrc": "../../../assets/images/team-members/sana.jpeg"
    },
    {
      "fullName": "Walid Ben Djemaa",
      "job": "Ophtalmologue",
      "linkedinUrl": null,
      "imgSrc": "../../../assets/images/team-members/walid.jpeg"
    },
    {
      "fullName": "Mohamed Kessentini",
      "job": "Dentiste",
      "linkedinUrl": null,
      "imgSrc": "../../../assets/images/team-members/kessentini.jpg"
    },
    {
      "fullName": "Mehdi Kechaou",
      "job": "Gastro-entérologue",
      "linkedinUrl": null,
      "imgSrc": "../../../assets/images/team-members/mehdi.jpg"
    },
    {
      "fullName": "Skander Kchaou",
      "job": "Médecin Généraliste",
      "linkedinUrl": "https://www.linkedin.com/in/skander-kechaou-78700961",
      "imgSrc": "../../../assets/images/team-members/skander.jpg"
    },
    {
      "fullName": "Asma Mekki",
      "job": "Médecin Généraliste",
      "linkedinUrl": null,
      "imgSrc": "../../../assets/images/team-members/asma.jpg"
    },
    {
      "fullName": "Aouatef Dridi",
      "job": "Pneumologue",
      "linkedinUrl": null,
      "imgSrc": "../../../assets/images/team-members/aouatef.jpg"
    },
    {
      "fullName": "Najeh Smaoui",
      "job": "Assistante en psychiatrie",
      "linkedinUrl": null,
      "imgSrc": "../../../assets/images/team-members/najeh.jpg"
    }
  ],
  "other": [
    {
      "fullName": "Fakhri Ghrab",
      "job": "Architecte",
      "linkedinUrl": null,
      "imgSrc": "../../../assets/images/team-members/fakhri.jpeg"
    },
    {
      "fullName": "Ferdaws Ghrab Ben Djemaa",
      "job": "Docteur en génie biologique",
      "linkedinUrl": "https://www.linkedin.com/in/ferdaws-ghrab-ben-djemaa-1b95a44a/",
      "imgSrc": "../../../assets/images/team-members/ferdaws.png"
    },
    {
      "fullName": "Ahmed Shili",
      "job": "Animateur Radio",
      "linkedinUrl": null,
      "imgSrc": "../../../assets/images/team-members/ahmed.jpeg"
    },
    {
      "fullName": "Amira Ben Achour",
      "job": "Ingénieure Big Data",
      "linkedinUrl": "https://www.linkedin.com/in/amiraba/",
      "imgSrc": "../../../assets/images/team-members/amira.JPG"
    }
  ]
}
